{
  "src_folders" : ["TestCases"],
  "output_folder" : "",
  "custom_commands_path" : "",
  "custom_assertions_path" : "",
  "page_objects_path" : "",
  "globals_path" : "",

  "selenium" : {
    "start_process" : false,
    "host" : "hub.browserstack.com",
    "port" : 80
  },

  "test_settings" : {
    "default" : {
      "launch_url" : "http://hub.browserstack.com",
      "selenium_port"  : 80,
      "selenium_host"  : "hub.browserstack.com",
      "silent": true,
      "screenshots" : {
        "enabled" : true,
        "path" : "reports"
      },

      "desiredCapabilities": {
        "browserName": "chrome",
        "javascriptEnabled": true,
        "acceptSslCerts": true,
        "browserstack.user" : "carolynmoody1",
        "browserstack.key" : "DaMgxT86tnp8LBzUrr5H"
      }
    },

    "chrome" : {
      "desiredCapabilities": {
        "launch_url" : "http://hub.browserstack.com",
        "selenium_port"  : 80,
        "selenium_host"  : "hub.browserstack.com",
        "browserName": "chrome",
        "javascriptEnabled": true,
        "acceptSslCerts": true
      }
    }
  }
}